---
http_interactions:
- request:
    method: get
    uri: https://www.flickr.com/services/rest?api_key=afc0534801d8e1975fc30b4fa0841ab2&format=json&method=flickr.photos.search&nojsoncallback=1&text=spongebob
    body:
      encoding: US-ASCII
      string: ''
    headers:
      User-Agent:
      - Faraday v2.2.0
      Accept-Encoding:
      - gzip;q=1.0,deflate;q=0.6,identity;q=0.3
      Accept:
      - "*/*"
  response:
    status:
      code: 200
      message: OK
    headers:
      Content-Type:
      - application/json
      Transfer-Encoding:
      - chunked
      Connection:
      - keep-alive
      Date:
      - Tue, 08 Mar 2022 08:28:26 GMT
      Server:
      - Apache/2.4.52 (Ubuntu)
      Set-Cookie:
      - ccc=%7B%22needsConsent%22%3Afalse%2C%22managed%22%3A0%2C%22changed%22%3A0%2C%22info%22%3A%7B%22cookieBlock%22%3A%7B%22level%22%3A0%2C%22blockRan%22%3A0%7D%7D%7D;
        expires=Thu, 07-Apr-2022 08:28:25 GMT; Max-Age=2592000; path=/; domain=.flickr.com
      X-Content-Type-Options:
      - nosniff
      X-Frame-Options:
      - SAMEORIGIN
      X-Cache:
      - Miss from cloudfront
      Via:
      - 1.1 02400e961e7094d2c4fff83bc2205fc2.cloudfront.net (CloudFront)
      X-Amz-Cf-Pop:
      - DEN50-C1
      X-Amz-Cf-Id:
      - 366hBAcFVYPygp-7vQvwZJ4z-wDR241s5C3IJT2giWZ9x5brns2yqw==
    body:
      encoding: UTF-8
      string: '{"photos":{"page":1,"pages":836,"perpage":100,"total":83524,"photo":[{"id":"51925765270","owner":"194985622@N04","secret":"c43f17ddfb","server":"65535","farm":66,"title":"tas-blacu-lipat","ispublic":1,"isfriend":0,"isfamily":0},{"id":"51922019643","owner":"134309311@N04","secret":"69e010c969","server":"65535","farm":66,"title":"Swer-knals
        SpongeBob","ispublic":1,"isfriend":0,"isfamily":0},{"id":"51919451523","owner":"22541015@N00","secret":"f41ebff7da","server":"65535","farm":66,"title":"Universal
        fun","ispublic":1,"isfriend":0,"isfamily":0},{"id":"51919680169","owner":"22541015@N00","secret":"3e595be132","server":"65535","farm":66,"title":"Universal
        fun","ispublic":1,"isfriend":0,"isfamily":0},{"id":"51919173143","owner":"39235361@N06","secret":"1256edd636","server":"65535","farm":66,"title":"_JP27098","ispublic":1,"isfriend":0,"isfamily":0},{"id":"51916028999","owner":"195112559@N05","secret":"5932c0da9b","server":"65535","farm":66,"title":"Britain_Spain
        Meme Exam Image","ispublic":1,"isfriend":0,"isfamily":0},{"id":"51914939398","owner":"51035555243@N01","secret":"8c23b1042d","server":"65535","farm":66,"title":"Who
        Lives in a PIneapple Under the Sea","ispublic":1,"isfriend":0,"isfamily":0},{"id":"51913501000","owner":"8818635@N02","secret":"a98f987b82","server":"65535","farm":66,"title":"2022-03-01
        More #Zuru #MiniBrands! #miniature #toy #ZuruMiniBrands #Spongebob","ispublic":1,"isfriend":0,"isfamily":0},{"id":"51912029666","owner":"31975770@N08","secret":"d9c5d13393","server":"65535","farm":66,"title":"BlazeOn:
        SpongeBob Kamp Koral Tag \u2013 Squidward at Monthly Variety Challenge Geocache","ispublic":1,"isfriend":0,"isfamily":0},{"id":"51912127053","owner":"31975770@N08","secret":"b82d8b928d","server":"65535","farm":66,"title":"BlazeOn:
        SpongeBob Kamp Koral Tag \u2013 Squidward at Monthly Variety Challenge Geocache","ispublic":1,"isfriend":0,"isfamily":0},{"id":"51912648225","owner":"31975770@N08","secret":"71d478df30","server":"65535","farm":66,"title":"BlazeOn:
        SpongeBob Kamp Koral Tag \u2013 Squidward at Monthly Variety Challenge Geocache","ispublic":1,"isfriend":0,"isfamily":0},{"id":"51912027796","owner":"31975770@N08","secret":"4542ae9067","server":"65535","farm":66,"title":"BlazeOn:
        SpongeBob Kamp Koral Tag \u2013 Squidward at Monthly Variety Challenge Geocache","ispublic":1,"isfriend":0,"isfamily":0},{"id":"51912646470","owner":"31975770@N08","secret":"56184d9f60","server":"65535","farm":66,"title":"BlazeOn:
        SpongeBob Kamp Koral Tag \u2013 Squidward at Monthly Variety Challenge Geocache","ispublic":1,"isfriend":0,"isfamily":0},{"id":"51910812143","owner":"188798068@N06","secret":"77e76dedc4","server":"65535","farm":66,"title":"The
        Guild (Opening Soon!)","ispublic":1,"isfriend":0,"isfamily":0},{"id":"51906348933","owner":"8818635@N02","secret":"1b25a67a00","server":"65535","farm":66,"title":"2022-02-26
        New #Zuru mini brands\u2014 well, the ones that aren\u2019t doubles! These
        two look faintly familiar, but who knows! At least these two are something
        I\u2019d like to remember that I have! (Unlike the SpongeBob\/TMNT doubles\u2014
        I feel like I could stock my own #","ispublic":1,"isfriend":0,"isfamily":0},{"id":"51901658430","owner":"186261410@N06","secret":"f8a9a2b121","server":"65535","farm":66,"title":"20220223_141154000_iOS","ispublic":1,"isfriend":0,"isfamily":0},{"id":"51900327530","owner":"162594040@N04","secret":"fe0634035a","server":"65535","farm":66,"title":"SpongeBob
        SquarePants: Ethan Slater \u201914 and Lilli Cooper \u201912 Costar in the
        Broadway Musical","ispublic":1,"isfriend":0,"isfamily":0},{"id":"51897898108","owner":"194948385@N06","secret":"c25e4df510","server":"65535","farm":66,"title":"spongebob_squarepants_by_hiugo_42894870152_o","ispublic":1,"isfriend":0,"isfamily":0},{"id":"51896736576","owner":"34427470616@N01","secret":"3b4b7a420c","server":"65535","farm":66,"title":"graffiti,
        Leake Street","ispublic":1,"isfriend":0,"isfamily":0},{"id":"51896623798","owner":"34635402@N06","secret":"98fb0a5567","server":"65535","farm":66,"title":"Lucid
        Dreams II","ispublic":1,"isfriend":0,"isfamily":0},{"id":"51893863140","owner":"34635402@N06","secret":"b928924ea4","server":"65535","farm":66,"title":"dark
        invasion","ispublic":1,"isfriend":0,"isfamily":0},{"id":"51893517344","owner":"160026932@N07","secret":"6a7407edca","server":"65535","farm":66,"title":"SpongeBob
        SquarePants Battle For Bikini Bottom - Rehydrated CUSA14898","ispublic":1,"isfriend":0,"isfamily":0},{"id":"51891564995","owner":"140009137@N05","secret":"dc7ce9357b","server":"65535","farm":66,"title":"spongebob","ispublic":1,"isfriend":0,"isfamily":0},{"id":"51891332770","owner":"193486578@N07","secret":"f01e71d0c5","server":"65535","farm":66,"title":"HOT
        WHEELS UNLEASHED","ispublic":1,"isfriend":0,"isfamily":0},{"id":"51889981913","owner":"192786170@N04","secret":"58dd608b3c","server":"65535","farm":66,"title":"Carby","ispublic":1,"isfriend":0,"isfamily":0},{"id":"51888653647","owner":"55973205@N08","secret":"e8c53bd2ba","server":"65535","farm":66,"title":"Retro
        1950''s rocket with launchpad and service tower - real life MOC","ispublic":1,"isfriend":0,"isfamily":0},{"id":"51889461636","owner":"192225735@N02","secret":"73fecd2747","server":"65535","farm":66,"title":"Holly
        Spongebob","ispublic":1,"isfriend":0,"isfamily":0},{"id":"51888452473","owner":"187523206@N02","secret":"18a9d9ff82","server":"65535","farm":66,"title":"Time
        To Choose New Shirt For Summer 2022","ispublic":1,"isfriend":0,"isfamily":0},{"id":"51888346749","owner":"193418589@N06","secret":"2e83c6d019","server":"65535","farm":66,"title":"Spongebob''s
        Splash Bash","ispublic":1,"isfriend":0,"isfamily":0},{"id":"51887856660","owner":"43726661@N05","secret":"88a6a56eb4","server":"65535","farm":66,"title":"SpongeBob
        Universal Parade","ispublic":1,"isfriend":0,"isfamily":0},{"id":"51885363207","owner":"195026778@N02","secret":"746e04d3f0","server":"0","farm":0,"title":"UNDERVERSE
        0.6 Paralelos Cinematogr\u00e1ficos pero es terriblemente doloroso de ver","ispublic":1,"isfriend":0,"isfamily":0},{"id":"51885925043","owner":"95712874@N08","secret":"44d25ef5d7","server":"65535","farm":66,"title":"\u57163.
        SpongeBob X CASETiFY \u806f\u540d\u7cfb\u5217\u66f4\u63a8\u51fa\u9748\u611f\u4f86\u81ea\u6bd4\u5947\u5821\u6df1\u85cd\u8272\u6c34\u4e0b\u5929\u7a7a\u8207\u6c34\u6bcd\u7530\u7684\u5ba2\u88fd\u5316\u624b\u6a5f\u6bbc","ispublic":1,"isfriend":0,"isfamily":0},{"id":"51885925003","owner":"95712874@N08","secret":"92e6984026","server":"65535","farm":66,"title":"\u57162.
        SpongeBob X CASETiFY \u806f\u540d\u7cfb\u5217\u4ee5\u5287\u4e2d\u7d93\u5178\u89d2\u8272\u4ee5\u53ca\u6bd4\u5947\u5821\u91ce\u9910\u7f8e\u98df\u70ba\u8a2d\u8a08\u9748\u611f","ispublic":1,"isfriend":0,"isfamily":0},{"id":"51882881338","owner":"165331463@N06","secret":"b170ddd653","server":"65535","farm":66,"title":"Year
        of the Alice Day 46","ispublic":1,"isfriend":0,"isfamily":0},{"id":"51882098294","owner":"194601504@N06","secret":"76d02235d2","server":"65535","farm":66,"title":"Spongebob-3D-Customised-Cake","ispublic":1,"isfriend":0,"isfamily":0},{"id":"51880396907","owner":"189394056@N03","secret":"b6ebd58a64","server":"65535","farm":66,"title":"haunted
        sundae face minion","ispublic":1,"isfriend":0,"isfamily":0},{"id":"51881341258","owner":"193685986@N03","secret":"859b542f37","server":"65535","farm":66,"title":"Know
        Top 5 Cartoons From The 90s By Briton Alex Arrash Ariana | Alex Arrash Ariana","ispublic":1,"isfriend":0,"isfamily":0},{"id":"51880392676","owner":"8171213@N03","secret":"769a5e8eee","server":"65535","farm":66,"title":"Christmas
        Eve, watching SpongeBob, at the Cottonwood Court, Santa Fe, NM","ispublic":1,"isfriend":0,"isfamily":0},{"id":"51880354454","owner":"189394056@N03","secret":"85cb9bc128","server":"65535","farm":66,"title":"General
        Matarslagur","ispublic":1,"isfriend":0,"isfamily":0},{"id":"51875974597","owner":"194242991@N04","secret":"fe7ff65cc0","server":"65535","farm":66,"title":"Spongebob-insta-post-\u2013-35","ispublic":1,"isfriend":0,"isfamily":0},{"id":"51876525810","owner":"194972103@N05","secret":"610c744cfe","server":"65535","farm":66,"title":"Plate
        design","ispublic":1,"isfriend":0,"isfamily":0},{"id":"51865384861","owner":"155331454@N08","secret":"eee037a7d7","server":"65535","farm":66,"title":"SCORPION
        UPDATE","ispublic":1,"isfriend":0,"isfamily":0},{"id":"51864392410","owner":"34427470616@N01","secret":"f2255d19ef","server":"65535","farm":66,"title":"graffiti,
        Shoreditch","ispublic":1,"isfriend":0,"isfamily":0},{"id":"51861927458","owner":"193928295@N03","secret":"9a6c9d113f","server":"65535","farm":66,"title":"SpongeBob
        Bikini Bottom","ispublic":1,"isfriend":0,"isfamily":0},{"id":"51860852202","owner":"195016957@N08","secret":"953559c18f","server":"65535","farm":66,"title":"Spongebob","ispublic":1,"isfriend":0,"isfamily":0},{"id":"51860926595","owner":"188770145@N03","secret":"c40b7eb542","server":"65535","farm":66,"title":"spongebob_squarepants_by_hiugo_42894870152_o","ispublic":1,"isfriend":0,"isfamily":0},{"id":"51855983490","owner":"194849186@N02","secret":"86cb76a7d1","server":"65535","farm":66,"title":"Spongebob","ispublic":1,"isfriend":0,"isfamily":0},{"id":"51851574402","owner":"148269560@N04","secret":"70f759fe16","server":"65535","farm":66,"title":"2003
        SpongeBob Candy Buddy New With Tags","ispublic":1,"isfriend":0,"isfamily":0},{"id":"51851749936","owner":"68669953@N04","secret":"f0cebd26c9","server":"65535","farm":66,"title":"Kids....","ispublic":1,"isfriend":0,"isfamily":0},{"id":"51851326576","owner":"194515896@N02","secret":"2bc6976c59","server":"65535","farm":66,"title":"Plexie
        \"SpongeBob\" Set XL","ispublic":1,"isfriend":0,"isfamily":0},{"id":"51847564764","owner":"129939363@N02","secret":"98e6946a9e","server":"65535","farm":66,"title":"NETFLIX
        Spongebob SquarePants on 2022.01.28 with taste of 2018.01","ispublic":1,"isfriend":0,"isfamily":0},{"id":"51846954716","owner":"142547159@N07","secret":"d4f78f4484","server":"65535","farm":66,"title":"Coral
        Aurora Music Video cover","ispublic":1,"isfriend":0,"isfamily":0},{"id":"51843493900","owner":"194836646@N05","secret":"e1318969a6","server":"65535","farm":66,"title":"Cartoon
        cute spongebob polyester socks high-top warm socks christmas gifts for children","ispublic":1,"isfriend":0,"isfamily":0},{"id":"51840542957","owner":"194653223@N07","secret":"d21b7b943c","server":"65535","farm":66,"title":"Spongebob
        Mural","ispublic":1,"isfriend":0,"isfamily":0},{"id":"51840947731","owner":"194855183@N05","secret":"b4ea37e320","server":"0","farm":0,"title":"SpongeBob-SquarePants-Home-Sweet-Pineapple-SpongeBob-SquarePants-Home-Sweet-Pineapple","ispublic":1,"isfriend":0,"isfamily":0},{"id":"51833642477","owner":"194504030@N03","secret":"9dcc15d11f","server":"65535","farm":66,"title":"spongebob_squarepants_by_hiugo_42894870152_o","ispublic":1,"isfriend":0,"isfamily":0},{"id":"51834337799","owner":"34691125@N04","secret":"efb099f7cc","server":"65535","farm":66,"title":"PKP
        Cargo 189 205, Elst, 07-10-2012","ispublic":1,"isfriend":0,"isfamily":0},{"id":"51829246103","owner":"194842568@N04","secret":"161cd6a69e","server":"65535","farm":66,"title":"Sahbabii","ispublic":1,"isfriend":0,"isfamily":0},{"id":"51822969711","owner":"67906779@N00","secret":"887c6c75dc","server":"65535","farm":66,"title":"Christmas
        2021","ispublic":1,"isfriend":0,"isfamily":0},{"id":"51818890767","owner":"194785154@N05","secret":"06e89f9db5","server":"65535","farm":66,"title":"spongebob_characters_wallpaper_thumb_1920_637740.0","ispublic":1,"isfriend":0,"isfamily":0},{"id":"51819825426","owner":"182882235@N04","secret":"d5b5418697","server":"65535","farm":66,"title":"Two
        arms","ispublic":1,"isfriend":0,"isfamily":0},{"id":"51817844634","owner":"194792518@N04","secret":"72ee7d9aa7","server":"65535","farm":66,"title":"spongebob-squarepants-run-yellow-hd-wallpaper-preview","ispublic":1,"isfriend":0,"isfamily":0},{"id":"51815829860","owner":"122189671@N02","secret":"5617e5fbfd","server":"65535","farm":66,"title":"Sponge
        Bob Schwammkopf","ispublic":1,"isfriend":0,"isfamily":0},{"id":"51813466239","owner":"43726661@N05","secret":"60cb61df8a","server":"65535","farm":66,"title":"SpongeBob
        Universal Parade","ispublic":1,"isfriend":0,"isfamily":0},{"id":"51807498754","owner":"77173459@N06","secret":"7f264fc282","server":"65535","farm":66,"title":"PAWS","ispublic":1,"isfriend":0,"isfamily":0},{"id":"51804024690","owner":"193126497@N08","secret":"a7071ffeab","server":"65535","farm":66,"title":"LEGO:
        Apartment building fronts","ispublic":1,"isfriend":0,"isfamily":0},{"id":"51800316647","owner":"194656702@N04","secret":"a39860c3b5","server":"65535","farm":66,"title":"IMG_20211217_120319__01","ispublic":1,"isfriend":0,"isfamily":0},{"id":"51798132612","owner":"16054928@N07","secret":"5d94fbe41c","server":"65535","farm":66,"title":"Squirrel","ispublic":1,"isfriend":0,"isfamily":0},{"id":"51796277084","owner":"192584761@N02","secret":"b3a5411c1e","server":"65535","farm":66,"title":"SpongeBob
        SquarePants Goofy Goober 3D print model","ispublic":1,"isfriend":0,"isfamily":0},{"id":"51790537848","owner":"167013158@N03","secret":"e879530408","server":"65535","farm":66,"title":"Greatest
        Moments of 2021 (Part 2)","ispublic":1,"isfriend":0,"isfamily":0},{"id":"51786507118","owner":"151111185@N04","secret":"c77d5d5c37","server":"65535","farm":66,"title":"Classic
        EMD At CP83","ispublic":1,"isfriend":0,"isfamily":0},{"id":"51783875762","owner":"57951266@N03","secret":"13fdfed478","server":"65535","farm":66,"title":"DSC07674","ispublic":1,"isfriend":0,"isfamily":0},{"id":"51782743137","owner":"160977877@N06","secret":"329757ae57","server":"65535","farm":66,"title":"N\u039eON
        - ICE COLD -  @ ( PLANET29 EVENT )","ispublic":1,"isfriend":0,"isfamily":0},{"id":"51782896538","owner":"194616913@N05","secret":"daa9e06833","server":"65535","farm":66,"title":"Collection
        of pictures I like","ispublic":1,"isfriend":0,"isfamily":0},{"id":"51777547156","owner":"187655725@N04","secret":"defc7747e2","server":"65535","farm":66,"title":"Lego
        Spongebob","ispublic":1,"isfriend":0,"isfamily":0},{"id":"51770684094","owner":"51035555243@N01","secret":"a20597cc62","server":"65535","farm":66,"title":"Graffiti
        Canvas","ispublic":1,"isfriend":0,"isfamily":0},{"id":"51760788723","owner":"154479504@N06","secret":"f7baf9ea25","server":"65535","farm":66,"title":"[AB]-
        Spongebob Christmas XXL Nails","ispublic":1,"isfriend":0,"isfamily":0},{"id":"51759102830","owner":"194013595@N04","secret":"7ec414326c","server":"65535","farm":66,"title":"Anime
        Patrick Star","ispublic":1,"isfriend":0,"isfamily":0},{"id":"51751054165","owner":"144663500@N06","secret":"9d0acb9078","server":"65535","farm":66,"title":"LEGO
        spongebob","ispublic":1,"isfriend":0,"isfamily":0},{"id":"51751054140","owner":"144663500@N06","secret":"2e39667ce6","server":"65535","farm":66,"title":"LEGO
        spongebob","ispublic":1,"isfriend":0,"isfamily":0},{"id":"51750823569","owner":"144663500@N06","secret":"7af01f7694","server":"65535","farm":66,"title":"LEGO
        spongebob","ispublic":1,"isfriend":0,"isfamily":0},{"id":"51748343360","owner":"194626651@N04","secret":"f0c52ec413","server":"65535","farm":66,"title":"spongebob","ispublic":1,"isfriend":0,"isfamily":0},{"id":"51745774301","owner":"194502786@N07","secret":"7948c519b8","server":"65535","farm":66,"title":"SpongeBob:
        Krusty Cook-Off Switch NSP Free Download","ispublic":1,"isfriend":0,"isfamily":0},{"id":"51739792683","owner":"193166625@N06","secret":"a36b8f1ec7","server":"65535","farm":66,"title":"Jubilee
        Car 762.","ispublic":1,"isfriend":0,"isfamily":0},{"id":"51732251115","owner":"61547555@N00","secret":"c2ec95721c","server":"65535","farm":66,"title":"SpongeBob
        Lego","ispublic":1,"isfriend":0,"isfamily":0},{"id":"51726700252","owner":"21219540@N08","secret":"1d3d799f54","server":"65535","farm":66,"title":"Women''s
        Rally ATX 2021 Sign: Spongebob","ispublic":1,"isfriend":0,"isfamily":0},{"id":"51724190102","owner":"51035555243@N01","secret":"1205c536de","server":"65535","farm":66,"title":"Squidward
        Tentacles","ispublic":1,"isfriend":0,"isfamily":0},{"id":"51724147447","owner":"54956887@N02","secret":"6ed505b7ef","server":"65535","farm":66,"title":"Spongebob
        Squarepants and Gary- 2021 Macy''s Thanksgiving Day Parade","ispublic":1,"isfriend":0,"isfamily":0},{"id":"51720350595","owner":"50481438@N08","secret":"7f42584a4d","server":"65535","farm":66,"title":"TG4
        02-01-22@ 17.35 Scann\u00e1n-SpongeBob - Sp\u00fainse as Uisce","ispublic":1,"isfriend":0,"isfamily":0},{"id":"51719052054","owner":"106337505@N06","secret":"13f2da0b4c","server":"65535","farm":66,"title":"Spongebob_advice_Peter
        F","ispublic":1,"isfriend":0,"isfamily":0},{"id":"51713123421","owner":"78495506@N03","secret":"c2a8552f46","server":"65535","farm":66,"title":"IMG_4243
        spongebob","ispublic":1,"isfriend":0,"isfamily":0},{"id":"51712005247","owner":"192225735@N02","secret":"165ae72019","server":"65535","farm":66,"title":"Sneaky
        Spongebob","ispublic":1,"isfriend":0,"isfamily":0},{"id":"51709475784","owner":"43180194@N05","secret":"3bc1452431","server":"65535","farm":66,"title":"SpongeBob
        SquarePants","ispublic":1,"isfriend":0,"isfamily":0},{"id":"51708615256","owner":"15853267@N00","secret":"81df8453fd","server":"65535","farm":66,"title":"Going
        out for the weekend....","ispublic":1,"isfriend":0,"isfamily":0},{"id":"51707060335","owner":"17587718@N00","secret":"2e82f18879","server":"65535","farm":66,"title":"Macy''s
        Thanksgiving Day Parade 2021 (24) - 11\/25\/21","ispublic":1,"isfriend":0,"isfamily":0},{"id":"51707053005","owner":"17587718@N00","secret":"0dc24a291f","server":"65535","farm":66,"title":"Macy''s
        Thanksgiving Day Parade 2021 (23) - 11\/25\/21","ispublic":1,"isfriend":0,"isfamily":0},{"id":"51706355665","owner":"13995873@N05","secret":"f62342ed10","server":"65535","farm":66,"title":"2021
        Thanksgiving Day Parade","ispublic":1,"isfriend":0,"isfamily":0},{"id":"51705411453","owner":"61547555@N00","secret":"67319c8462","server":"65535","farm":66,"title":"SpongeBob","ispublic":1,"isfriend":0,"isfamily":0},{"id":"51705113309","owner":"194265668@N03","secret":"4f86a42bcb","server":"65535","farm":66,"title":"24.Sonrisa","ispublic":1,"isfriend":0,"isfamily":0},{"id":"51699804856","owner":"188539852@N07","secret":"9ac34387c6","server":"65535","farm":66,"title":"Spongebob
        Pt.1","ispublic":1,"isfriend":0,"isfamily":0}]},"stat":"ok"}'
  recorded_at: Tue, 08 Mar 2022 08:28:26 GMT
recorded_with: VCR 6.0.0
